<?xml version="1.0" encoding="UTF-8" standalone="no"?>
<!-- Created with Inkscape (http://www.inkscape.org/) -->

<svg
   xmlns:dc="http://purl.org/dc/elements/1.1/"
   xmlns:cc="http://creativecommons.org/ns#"
   xmlns:rdf="http://www.w3.org/1999/02/22-rdf-syntax-ns#"
   xmlns:svg="http://www.w3.org/2000/svg"
   xmlns="http://www.w3.org/2000/svg"
   xmlns:sodipodi="http://sodipodi.sourceforge.net/DTD/sodipodi-0.dtd"
   xmlns:inkscape="http://www.inkscape.org/namespaces/inkscape"
   sodipodi:docname="dramsim2_ganged_cpu.svg"
   inkscape:version="0.48.5 r10040"
   version="1.1"
   id="svg2"
   height="300"
   width="830">
  <sodipodi:namedview
     id="base"
     pagecolor="#ffffff"
     bordercolor="#666666"
     borderopacity="1.0"
     inkscape:pageopacity="0.0"
     inkscape:pageshadow="2"
     inkscape:zoom="1.1695531"
     inkscape:cx="327.1901"
     inkscape:cy="180.55301"
     inkscape:document-units="px"
     inkscape:current-layer="layer1"
     showgrid="false"
     showborder="true"
     inkscape:window-width="1600"
     inkscape:window-height="838"
     inkscape:window-x="-8"
     inkscape:window-y="-8"
     inkscape:window-maximized="1"
     showguides="true"
     inkscape:guide-bbox="true">
    <sodipodi:guide
       orientation="1,0"
       position="-160.90608,1143.0601"
       id="guide5374" />
    <sodipodi:guide
       orientation="0,1"
       position="208.2506,1528.4118"
       id="guide4922" />
    <sodipodi:guide
       orientation="1,0"
       position="-0.52242233,1566.7446"
       id="guide4957" />
    <sodipodi:guide
       orientation="1,0"
       position="746.54151,1478.9776"
       id="guide5057" />
    <sodipodi:guide
       orientation="0,1"
       position="101.65657,1521.847"
       id="guide5086" />
    <sodipodi:guide
       orientation="0,1"
       position="-49.497474,1880.904"
       id="guide5090" />
    <sodipodi:guide
       orientation="0,1"
       position="179.33996,1491.3324"
       id="guide5092" />
    <sodipodi:guide
       orientation="1,0"
       position="444.84375,1100.3242"
       id="guide5159" />
    <sodipodi:guide
       orientation="1,0"
       position="37.255171,1855.8273"
       id="guide6061" />
    <sodipodi:guide
       orientation="1,0"
       position="149.75434,263.50216"
       id="guide6133" />
    <sodipodi:guide
       orientation="1,0"
       position="680.03198,260.22885"
       id="guide6383" />
    <sodipodi:guide
       orientation="0,1"
       position="244.25015,493.32851"
       id="guide6441" />
    <sodipodi:guide
       orientation="0,1"
       position="440.32994,1098.8507"
       id="guide4013" />
    <sodipodi:guide
       orientation="0,1"
       position="590.20214,1313.2409"
       id="guide4961" />
    <sodipodi:guide
       orientation="0,1"
       position="589.60156,1260.2539"
       id="guide4963" />
    <sodipodi:guide
       orientation="1,0"
       position="467.05078,962.32422"
       id="guide4965" />
    <sodipodi:guide
       orientation="0,1"
       position="440.22921,1327.14"
       id="guide5138" />
    <sodipodi:guide
       orientation="1,0"
       position="17.60033,1198.4631"
       id="guide5461" />
    <sodipodi:guide
       orientation="1,0"
       position="713.26172,1270.2891"
       id="guide4334" />
    <sodipodi:guide
       orientation="0,1"
       position="157.97348,1725.2898"
       id="guide4141" />
    <sodipodi:guide
       orientation="0,1"
       position="226.40097,417.92937"
       id="guide5072" />
    <sodipodi:guide
       orientation="0,1"
       position="336.74053,414.78867"
       id="guide5074" />
  </sodipodi:namedview>
  <defs
     id="defs4">
    <marker
       inkscape:stockid="DiamondL"
       orient="auto"
       refY="0"
       refX="0"
       id="DiamondL"
       style="overflow:visible">
      <path
         id="path13282"
         d="M 0,-7.0710768 -7.0710894,0 0,7.0710589 7.0710462,0 0,-7.0710768 z"
         style="fill-rule:evenodd;stroke:#000000;stroke-width:1pt"
         transform="scale(0.8,0.8)"
         inkscape:connector-curvature="0" />
    </marker>
    <marker
       inkscape:stockid="Arrow1Lend"
       orient="auto"
       refY="0"
       refX="0"
       id="Arrow1Lend"
       style="overflow:visible">
      <path
         id="path3901"
         d="M 0,0 5,-5 -12.5,0 5,5 0,0 z"
         style="fill-rule:evenodd;stroke:#000000;stroke-width:1pt"
         transform="matrix(-0.8,0,0,-0.8,-10,0)"
         inkscape:connector-curvature="0" />
    </marker>
    <marker
       inkscape:stockid="Arrow1Lstart"
       orient="auto"
       refY="0"
       refX="0"
       id="Arrow1Lstart"
       style="overflow:visible">
      <path
         id="path3898"
         d="M 0,0 5,-5 -12.5,0 5,5 0,0 z"
         style="fill-rule:evenodd;stroke:#000000;stroke-width:1pt"
         transform="matrix(0.8,0,0,0.8,10,0)"
         inkscape:connector-curvature="0" />
    </marker>
    <marker
       inkscape:stockid="Arrow1Lend"
       orient="auto"
       refY="0"
       refX="0"
       id="Arrow1Lend-4"
       style="overflow:visible">
      <path
         inkscape:connector-curvature="0"
         id="path3901-2"
         d="M 0,0 5,-5 -12.5,0 5,5 0,0 z"
         style="fill-rule:evenodd;stroke:#000000;stroke-width:1pt"
         transform="matrix(-0.8,0,0,-0.8,-10,0)" />
    </marker>
    <marker
       inkscape:stockid="Arrow1Lend"
       orient="auto"
       refY="0"
       refX="0"
       id="Arrow1Lend-4-3"
       style="overflow:visible">
      <path
         inkscape:connector-curvature="0"
         id="path3901-2-8"
         d="M 0,0 5,-5 -12.5,0 5,5 0,0 z"
         style="fill-rule:evenodd;stroke:#000000;stroke-width:1pt"
         transform="matrix(-0.8,0,0,-0.8,-10,0)" />
    </marker>
    <marker
       inkscape:stockid="Arrow1Lstart"
       orient="auto"
       refY="0"
       refX="0"
       id="Arrow1Lstart-7"
       style="overflow:visible">
      <path
         inkscape:connector-curvature="0"
         id="path3898-0"
         d="M 0,0 5,-5 -12.5,0 5,5 0,0 z"
         style="fill-rule:evenodd;stroke:#000000;stroke-width:1pt"
         transform="matrix(0.8,0,0,0.8,10,0)" />
    </marker>
    <marker
       inkscape:stockid="Arrow1Lend"
       orient="auto"
       refY="0"
       refX="0"
       id="Arrow1Lend-4-3-1"
       style="overflow:visible">
      <path
         inkscape:connector-curvature="0"
         id="path3901-2-8-4"
         d="M 0,0 5,-5 -12.5,0 5,5 0,0 z"
         style="fill-rule:evenodd;stroke:#000000;stroke-width:1pt"
         transform="matrix(-0.8,0,0,-0.8,-10,0)" />
    </marker>
    <marker
       inkscape:stockid="Arrow1Lend"
       orient="auto"
       refY="0"
       refX="0"
       id="Arrow1Lend-4-5"
       style="overflow:visible">
      <path
         inkscape:connector-curvature="0"
         id="path3901-2-5"
         d="M 0,0 5,-5 -12.5,0 5,5 0,0 z"
         style="fill-rule:evenodd;stroke:#000000;stroke-width:1pt"
         transform="matrix(-0.8,0,0,-0.8,-10,0)" />
    </marker>
    <marker
       inkscape:stockid="Arrow1Lend-4-5l"
       orient="auto"
       refY="0"
       refX="0"
       id="Arrow1Lend-4-5l"
       style="overflow:visible">
      <path
         inkscape:connector-curvature="0"
         id="path5537"
         d="M 0,0 5,-5 -12.5,0 5,5 0,0 z"
         style="fill:#ff6600;fill-rule:evenodd;stroke:#ff6600;stroke-width:1pt"
         transform="matrix(-0.8,0,0,-0.8,-10,0)" />
    </marker>
    <marker
       inkscape:stockid="Arrow1Lend"
       orient="auto"
       refY="0"
       refX="0"
       id="Arrow1Lend-4-5-3"
       style="overflow:visible">
      <path
         inkscape:connector-curvature="0"
         id="path3901-2-5-2"
         d="M 0,0 5,-5 -12.5,0 5,5 0,0 z"
         style="fill-rule:evenodd;stroke:#000000;stroke-width:1pt"
         transform="matrix(-0.8,0,0,-0.8,-10,0)" />
    </marker>
    <marker
       inkscape:stockid="Arrow1Lend-4-5-31"
       orient="auto"
       refY="0"
       refX="0"
       id="Arrow1Lend-4-5-31"
       style="overflow:visible">
      <path
         inkscape:connector-curvature="0"
         id="path11396"
         d="M 0,0 5,-5 -12.5,0 5,5 0,0 z"
         style="fill:#808080;fill-rule:evenodd;stroke:#808080;stroke-width:1pt"
         transform="matrix(-0.8,0,0,-0.8,-10,0)" />
    </marker>
    <marker
       inkscape:stockid="DiamondLp"
       orient="auto"
       refY="0"
       refX="0"
       id="DiamondLp"
       style="overflow:visible">
      <path
         id="path14501"
         d="M 0,-7.0710768 -7.0710894,0 0,7.0710589 7.0710462,0 0,-7.0710768 z"
         style="fill:#000000;fill-rule:evenodd;stroke:#000000;stroke-width:1pt"
         transform="scale(0.8,0.8)"
         inkscape:connector-curvature="0" />
    </marker>
    <marker
       inkscape:stockid="DiamondLpd"
       orient="auto"
       refY="0"
       refX="0"
       id="DiamondLpd"
       style="overflow:visible">
      <path
         id="path15772"
         d="M 0,-7.0710768 -7.0710894,0 0,7.0710589 7.0710462,0 0,-7.0710768 z"
         style="fill:#808080;fill-rule:evenodd;stroke:#808080;stroke-width:1pt"
         transform="scale(0.8,0.8)"
         inkscape:connector-curvature="0" />
    </marker>
    <marker
       inkscape:stockid="Arrow1Lstart"
       orient="auto"
       refY="0"
       refX="0"
       id="Arrow1Lstart-1"
       style="overflow:visible">
      <path
         id="path3898-7"
         d="M 0,0 5,-5 -12.5,0 5,5 0,0 z"
         style="fill-rule:evenodd;stroke:#000000;stroke-width:1pt"
         transform="matrix(0.8,0,0,0.8,10,0)"
         inkscape:connector-curvature="0" />
    </marker>
    <marker
       inkscape:stockid="Arrow1Lend"
       orient="auto"
       refY="0"
       refX="0"
       id="Arrow1Lend-4-3-8"
       style="overflow:visible">
      <path
         inkscape:connector-curvature="0"
         id="path3901-2-8-8"
         d="M 0,0 5,-5 -12.5,0 5,5 0,0 z"
         style="fill-rule:evenodd;stroke:#000000;stroke-width:1pt"
         transform="matrix(-0.8,0,0,-0.8,-10,0)" />
    </marker>
    <marker
       inkscape:stockid="Arrow1Lstart"
       orient="auto"
       refY="0"
       refX="0"
       id="Arrow1Lstart-2"
       style="overflow:visible">
      <path
         id="path3898-3"
         d="M 0,0 5,-5 -12.5,0 5,5 0,0 z"
         style="fill-rule:evenodd;stroke:#000000;stroke-width:1pt"
         transform="matrix(0.8,0,0,0.8,10,0)"
         inkscape:connector-curvature="0" />
    </marker>
    <marker
       inkscape:stockid="Arrow1Lend"
       orient="auto"
       refY="0"
       refX="0"
       id="Arrow1Lend-4-3-3"
       style="overflow:visible">
      <path
         inkscape:connector-curvature="0"
         id="path3901-2-8-41"
         d="M 0,0 5,-5 -12.5,0 5,5 0,0 z"
         style="fill-rule:evenodd;stroke:#000000;stroke-width:1pt"
         transform="matrix(-0.8,0,0,-0.8,-10,0)" />
    </marker>
  </defs>
  <metadata
     id="metadata7">
    <rdf:RDF>
      <cc:Work
         rdf:about="">
        <dc:format>image/svg+xml</dc:format>
        <dc:type
           rdf:resource="http://purl.org/dc/dcmitype/StillImage" />
        <dc:title />
      </cc:Work>
    </rdf:RDF>
  </metadata>
  <g
     inkscape:label="Layer 1"
     inkscape:groupmode="layer"
     id="layer1"
     transform="translate(0,-752.362)">
    <rect
       style="fill:#008000;fill-opacity:1;stroke:#000000;stroke-width:0.59916222;stroke-opacity:1"
       id="rect3836"
       width="140.37517"
       height="140.37517"
       x="326.6756"
       y="825.13074" />
    <rect
       style="fill:#cccccc;fill-opacity:1;stroke:#000000;stroke-width:0.47534204;stroke-opacity:1"
       id="rect3836-7"
       width="111.36587"
       height="111.36587"
       x="341.01358"
       y="839.59998" />
    <path
       inkscape:connector-curvature="0"
       id="output_bus_part_15"
	   class="output_bus"
       d="m 537.99846,751.99193 0,142.28401 -67.80264,0"
       style="fill:none;stroke:#800080;stroke-width:2;stroke-linecap:butt;stroke-linejoin:miter;stroke-miterlimit:4;stroke-opacity:1;stroke-dasharray:none;marker-end:url(#Arrow1Lend-4-5-3)"
       inkscape:label="#path10255" />
    <path
       inkscape:connector-curvature="0"
       id="input_bus_part_14"
	   class="input_bus"
       d="m 326.14999,894.95367 -54.55487,0 0,-139.64912"
       style="fill:none;stroke:#ff6600;stroke-width:2;stroke-linecap:butt;stroke-linejoin:miter;stroke-miterlimit:4;stroke-opacity:1;stroke-dasharray:none;marker-end:url(#Arrow1Lend-4-5)"
       inkscape:label="#path9593" />
    <text
       xml:space="preserve"
       style="font-size:36.78915405px;font-style:normal;font-weight:normal;line-height:125%;letter-spacing:0px;word-spacing:0px;fill:#000000;fill-opacity:1;stroke:none;font-family:Sans"
       x="358.10986"
       y="907.78839"
       id="text3869"
       sodipodi:linespacing="125%"><tspan
         sodipodi:role="line"
         id="tspan3871"
         x="358.10986"
         y="907.78839"
         style="fill:#000000">CPU</tspan></text>
    <path
       style="fill:none;stroke:#000000;stroke-width:0;stroke-linecap:butt;stroke-linejoin:miter;stroke-miterlimit:4;stroke-opacity:1;stroke-dasharray:none;marker-end:url(#Arrow1Lend)"
       d="m 483.92709,510.80019 56.8261,0"
       id="path8159"
       inkscape:connector-curvature="0" />
    <text
       sodipodi:linespacing="125%"
       id="text10873"
       y="1275.2681"
       x="375.44751"
       style="font-size:36.78915405px;font-style:normal;font-weight:normal;line-height:125%;letter-spacing:0px;word-spacing:0px;fill:#000000;fill-opacity:1;stroke:none;font-family:Sans"
       xml:space="preserve"><tspan
         y="1275.2681"
         x="375.44751"
         id="tspan10875"
         sodipodi:role="line" /></text>
    <flowRoot
       xml:space="preserve"
       id="flowRoot3616"
       style="font-size:40px;font-style:normal;font-weight:normal;line-height:125%;letter-spacing:0px;word-spacing:0px;fill:#000000;fill-opacity:1;stroke:none;font-family:Sans"
       transform="matrix(0.91972889,0,0,0.91972889,1.4635869,628.78364)"><flowRegion
         id="flowRegion3618"><rect
           id="rect3620"
           width="102.04391"
           height="187.34624"
           x="771.70703"
           y="419.87131" /></flowRegion><flowPara
         id="flowPara3622" /></flowRoot>    <text
       xml:space="preserve"
       x="25.471743"
       y="865.35754"
       style="font-size:12.69225883px;font-style:normal;font-weight:normal;text-align:start;text-anchor:start;fill:#000000;font-family:Calibri"
       id="trace_text"
       inkscape:label="#text3638-3-6">Trace</text>
    <text
       inkscape:label="#text4874-5-3"
       sodipodi:linespacing="125%"
       id="trace"
       y="884.01495"
       x="24.246635"
       style="font-size:66.63516235px;font-style:normal;font-weight:normal;line-height:125%;letter-spacing:0px;word-spacing:0px;fill:#000000;fill-opacity:1;stroke:none;font-family:Sans"
       xml:space="preserve"><tspan
         y="884.01495"
         x="24.246635"
         id="tspan4876-9-6"
         sodipodi:role="line"><tspan
           id="tspan4878-8-1"
           style="font-size:19.99054909px;font-style:normal;font-variant:normal;font-weight:normal;font-stretch:normal;text-indent:0;text-align:start;text-decoration:none;line-height:normal;letter-spacing:normal;word-spacing:normal;text-transform:none;direction:ltr;block-progression:tb;writing-mode:lr-tb;text-anchor:start;baseline-shift:baseline;color:#000000;fill:#000000;fill-opacity:1;fill-rule:nonzero;stroke-width:1;marker:none;visibility:visible;display:inline;overflow:visible;enable-background:accumulate;font-family:Calibri;-inkscape-font-specification:Sans"><tspan
             id="tspan4880-4-5"
             style="font-weight:bold">k6_aoe_02_short </tspan></tspan></tspan></text>
    <rect
       transform="matrix(0,1,-1,0,0,0)"
       onmouseover="Increase the Transaction Queue by a power of 2."
       inkscape:label=""
       y="-73.310699"
       x="892.27661"
       height="19.735035"
       width="19.241659"
       id="trace_up2"
       style="color:#000000;fill:#cccccc;fill-opacity:1;fill-rule:nonzero;stroke:#000000;stroke-width:1.88880098;stroke-linecap:butt;stroke-linejoin:miter;stroke-miterlimit:4;stroke-opacity:1;stroke-dasharray:none;stroke-dashoffset:0;marker:none;visibility:visible;display:inline;overflow:visible;enable-background:accumulate"
       class="button" />
    <path
       inkscape:transform-center-x="-1.1360741"
       onmouseover="Increase the Transaction Queue by a power of 2."
       inkscape:label=""
       transform="matrix(0,0.90964598,-0.71559974,0,658.05267,806.73726)"
       d="m 99.426126,835.82894 2.529164,-4.38065 2.52917,-4.38064 2.52917,4.38064 2.52916,4.38065 -5.05833,0 z"
       inkscape:randomized="0"
       inkscape:rounded="0"
       inkscape:flatsided="false"
       sodipodi:arg2="3.6651914"
       sodipodi:arg1="2.6179939"
       sodipodi:r2="2.9204297"
       sodipodi:r1="5.8408594"
       sodipodi:cy="832.90851"
       sodipodi:cx="104.48446"
       sodipodi:sides="3"
       id="trace_up"
       style="color:#000000;fill:#000000;fill-opacity:1;fill-rule:nonzero;stroke:#000000;stroke-width:2;stroke-linecap:butt;stroke-linejoin:miter;stroke-miterlimit:4;stroke-opacity:1;stroke-dasharray:none;stroke-dashoffset:0;marker:none;visibility:visible;display:inline;overflow:visible;enable-background:accumulate"
       sodipodi:type="star" />
    <rect
       transform="matrix(0,-1,1,0,0,0)"
       onmouseover="Increase the Transaction Queue by a power of 2."
       inkscape:label=""
       y="26.445784"
       x="-911.52478"
       height="19.735035"
       width="19.241659"
       id="trace_down2"
       style="color:#000000;fill:#cccccc;fill-opacity:1;fill-rule:nonzero;stroke:#000000;stroke-width:1.88880098;stroke-linecap:butt;stroke-linejoin:miter;stroke-miterlimit:4;stroke-opacity:1;stroke-dasharray:none;stroke-dashoffset:0;marker:none;visibility:visible;display:inline;overflow:visible;enable-background:accumulate"
       class="button" />
    <path
       inkscape:transform-center-x="1.1360791"
       onmouseover="Increase the Transaction Queue by a power of 2."
       inkscape:label=""
       transform="matrix(0,-0.90964598,0.71559974,0,-558.08259,996.5837)"
       d="m 99.426126,835.82894 2.529164,-4.38065 2.52917,-4.38064 2.52917,4.38064 2.52916,4.38065 -5.05833,0 z"
       inkscape:randomized="0"
       inkscape:rounded="0"
       inkscape:flatsided="false"
       sodipodi:arg2="3.6651914"
       sodipodi:arg1="2.6179939"
       sodipodi:r2="2.9204297"
       sodipodi:r1="5.8408594"
       sodipodi:cy="832.90851"
       sodipodi:cx="104.48446"
       sodipodi:sides="3"
       id="trace_down"
       style="color:#000000;fill:#000000;fill-opacity:1;fill-rule:nonzero;stroke:#000000;stroke-width:2;stroke-linecap:butt;stroke-linejoin:miter;stroke-miterlimit:4;stroke-opacity:1;stroke-dasharray:none;stroke-dashoffset:0;marker:none;visibility:visible;display:inline;overflow:visible;enable-background:accumulate"
       sodipodi:type="star" />
    <text
       xml:space="preserve"
       style="font-size:36.78915405px;font-style:normal;font-weight:normal;line-height:125%;letter-spacing:0px;word-spacing:0px;fill:#000000;fill-opacity:1;stroke:none;font-family:Sans"
       x="1107.7078"
       y="1371.7534"
       id="text4757"
       sodipodi:linespacing="125%"><tspan
         sodipodi:role="line"
         id="tspan4759"
         x="1107.7078"
         y="1371.7534" /></text>
    <text
       id="text3630-4-0-9-44"
       style="font-size:12.69225883px;font-style:normal;font-weight:normal;text-align:start;text-anchor:start;fill:#000000;font-family:Calibri"
       y="796.51581"
       x="162.99875"
       xml:space="preserve" />
    <text
       id="text3630-4-0-9-4-6"
       style="font-size:12.69225883px;font-style:normal;font-weight:normal;text-align:start;text-anchor:start;fill:#000000;font-family:Calibri"
       y="796.64124"
       x="203.71825"
       xml:space="preserve" />
    <text
       id="text3630-4-0-9-4-8-0"
       style="font-size:12.69225883px;font-style:normal;font-weight:normal;text-align:start;text-anchor:start;fill:#000000;font-family:Calibri"
       y="796.55463"
       x="182.02608"
       xml:space="preserve" />
    <text
       xml:space="preserve"
       style="font-size:36.78915405px;font-style:normal;font-weight:normal;line-height:125%;letter-spacing:0px;word-spacing:0px;fill:#000000;fill-opacity:1;stroke:none;font-family:Sans"
       x="299.36545"
       y="1069.0969"
       id="text5580"
       sodipodi:linespacing="125%"><tspan
         sodipodi:role="line"
         id="tspan5582"
         x="299.36545"
         y="1069.0969" /></text>
    <text
       xml:space="preserve"
       style="font-size:36.78915405px;font-style:normal;font-weight:normal;line-height:125%;letter-spacing:0px;word-spacing:0px;fill:#000000;fill-opacity:1;stroke:none;font-family:Sans"
       x="254.24171"
       y="427.2807"
       id="text4801"
       sodipodi:linespacing="125%"><tspan
         sodipodi:role="line"
         id="tspan4803"
         x="254.24171"
         y="427.2807" /></text>
    <text
       xml:space="preserve"
       style="font-size:36.78915405px;font-style:normal;font-weight:normal;line-height:125%;letter-spacing:0px;word-spacing:0px;fill:#000000;fill-opacity:1;stroke:none;font-family:Sans"
       x="558.81927"
       y="454.36829"
       id="text4915"
       sodipodi:linespacing="125%"><tspan
         sodipodi:role="line"
         id="tspan4917"
         x="558.81927"
         y="454.36829" /></text>
    <text
       xml:space="preserve"
       style="font-size:36.78915405px;font-style:normal;font-weight:normal;line-height:125%;letter-spacing:0px;word-spacing:0px;fill:#000000;fill-opacity:1;stroke:none;font-family:Sans"
       x="188.8833"
       y="1043.402"
       id="timing_graph_text"
       sodipodi:linespacing="125%"
       inkscape:label="#text4101"><tspan
         sodipodi:role="line"
         id="tspan4103"
         x="188.8833"
         y="1043.402"
         style="font-size:18.39457703px;font-style:normal;font-variant:normal;font-weight:normal;font-stretch:normal;text-align:start;line-height:125%;writing-mode:lr-tb;text-anchor:start;font-family:Sans;-inkscape-font-specification:Sans">DRAM DEVICE TIMING CONSTRAINT PARAMETERS</tspan></text>
  </g>
</svg>

